Estado Inicial
VV2VV
VVVVV
0VVV4
VV3VV
VVVVV
VVVV1

Estado Final

VV2VV
VVVVV
0VVV4
VV3VV
VVVVV
VVVV1

Personagens
Duarte (Gigante)
0,2(1)
0,2(Este)

Ricardo (Anao)
2,0(4)
2,0(Norte)

Ambrosio (Dragão)
2,4(2)
2,4(Sul)

dragao (Dragão)
3,3(6)
3,3(Norte)

